<svg width="16" height="17" viewBox="0 0 16 17" fill="none" xmlns="http://www.w3.org/2000/svg">
<path fill-rule="evenodd" clip-rule="evenodd" d="M8 3C4.96243 3 2.5 5.46243 2.5 8.5C2.5 11.5375 4.96243 14 8 14C11.0375 14 13.5 11.5375 13.5 8.5C13.5 5.46243 11.0375 3 8 3ZM1.5 8.5C1.5 4.91015 4.41015 2 8 2C11.5899 2 14.5 4.91015 14.5 8.5C14.5 12.0899 11.5899 15 8 15C4.41015 15 1.5 12.0899 1.5 8.5ZM8 5.33333C8.27613 5.33333 8.5 5.55719 8.5 5.83333V8.29287L9.68687 9.4798C9.88213 9.67507 9.88213 9.9916 9.68687 10.1869C9.4916 10.3821 9.17507 10.3821 8.9798 10.1869L7.64647 8.85353C7.55267 8.7598 7.5 8.6326 7.5 8.5V5.83333C7.5 5.55719 7.72387 5.33333 8 5.33333Z" fill="white"/>
</svg>
